Portfolio 4
…
africa2 %>% filter(num_countries ==10)

## # A tibble: 1 × 4
## # Groups:   language, family [1]
##   language family      native_speakers num_countries
##   <chr>    <chr>                 <dbl>         <int>
## 1 Fulani   Niger–Congo        40000000            10

Arabic is spoken in 12 countries and Falani is spoken in 10
countries. Below are all the languages that are spoken in one or less
countries.

africa2 %>% filter(num_countries >=2)

## # A tibble: 153 × 4
## # Groups:   language, family [153]
##    language  family        native_speakers num_countries
##    <chr>     <chr>                   <dbl>         <int>
##  1 Abron     Niger–Congo           1393000             2
##  2 Afar      Afroasiatic           2500000             3
##  3 Afrikaans Indo-European         7200000             2
##  4 Aiki      Nilo-Saharan            19000             2
##  5 Aja       Nilo-Saharan              200             2
##  6 Aka       Niger–Congo             30000             2
##  7 Amdang    Nilo-Saharan           170000             2
##  8 Arabic    Afroasiatic         150000000            12
##  9 Avokaya   Nilo-Saharan           100000             2
## 10 Baka      Nilo-Saharan            60000             2
## # ℹ 143 more rows
…
